%YAML 1.1
%TAG !u! tag:unity3d.com,2011:
--- !u!29 &1
OcclusionCullingSettings:
  m_ObjectHideFlags: 0
  serializedVersion: 2
  m_OcclusionBakeSettings:
    smallestOccluder: 5
    smallestHole: 0.25
    backfaceThreshold: 100
  m_SceneGUID: 00000000000000000000000000000000
  m_OcclusionCullingData: {fileID: 0}
--- !u!104 &2
RenderSettings:
  m_ObjectHideFlags: 0
  serializedVersion: 8
  m_Fog: 0
  m_FogColor: {r: 0.5, g: 0.5, b: 0.5, a: 1}
  m_FogMode: 3
  m_FogDensity: 0.01
  m_LinearFogStart: 0
  m_LinearFogEnd: 300
  m_AmbientSkyColor: {r: 0.2544, g: 0.27240002, b: 0.31080002, a: 1.2}
  m_AmbientEquatorColor: {r: 0.1368, g: 0.15, b: 0.1596, a: 1.2}
  m_AmbientGroundColor: {r: 0.0564, g: 0.051600005, b: 0.042000003, a: 1.2}
  m_AmbientIntensity: 1.2
  m_AmbientMode: 0
  m_SubtractiveShadowColor: {r: 0.42, g: 0.478, b: 0.627, a: 1}
  m_SkyboxMaterial: {fileID: 10304, guid: 0000000000000000f000000000000000, type: 0}
  m_HaloStrength: 0.5
  m_FlareStrength: 1
  m_FlareFadeSpeed: 3
  m_HaloTexture: {fileID: 0}
  m_SpotCookie: {fileID: 10001, guid: 0000000000000000e000000000000000, type: 0}
  m_DefaultReflectionMode: 0
  m_DefaultReflectionResolution: 128
  m_ReflectionBounces: 1
  m_ReflectionIntensity: 1
  m_CustomReflection: {fileID: 0}
  m_Sun: {fileID: 0}
  m_IndirectSpecularColor: {r: 0.5366923, g: 0.59625083, b: 0.68992597, a: 1}
--- !u!157 &3
LightmapSettings:
  m_ObjectHideFlags: 0
  serializedVersion: 11
  m_GIWorkflowMode: 1
  m_GISettings:
    serializedVersion: 2
    m_BounceScale: 1
    m_IndirectOutputScale: 1
    m_AlbedoBoost: 1
    m_TemporalCoherenceThreshold: 1
    m_EnvironmentLightingMode: 0
    m_EnableBakedLightmaps: 1
    m_EnableRealtimeLightmaps: 1
  m_LightmapEditorSettings:
    serializedVersion: 9
    m_Resolution: 2
    m_BakeResolution: 120
    m_TextureWidth: 2048
    m_TextureHeight: 1024
    m_AO: 1
    m_AOMaxDistance: 1
    m_CompAOExponent: 1
    m_CompAOExponentDirect: 0
    m_Padding: 2
    m_LightmapParameters: {fileID: 0}
    m_LightmapsBakeMode: 1
    m_TextureCompression: 1
    m_FinalGather: 0
    m_FinalGatherFiltering: 1
    m_FinalGatherRayCount: 256
    m_ReflectionCompression: 2
    m_MixedBakeMode: 1
    m_BakeBackend: 0
    m_PVRSampling: 1
    m_PVRDirectSampleCount: 32
    m_PVRSampleCount: 500
    m_PVRBounces: 2
    m_PVRFilterTypeDirect: 0
    m_PVRFilterTypeIndirect: 0
    m_PVRFilterTypeAO: 0
    m_PVRFilteringMode: 0
    m_PVRCulling: 1
    m_PVRFilteringGaussRadiusDirect: 1
    m_PVRFilteringGaussRadiusIndirect: 5
    m_PVRFilteringGaussRadiusAO: 2
    m_PVRFilteringAtrousPositionSigmaDirect: 0.5
    m_PVRFilteringAtrousPositionSigmaIndirect: 2
    m_PVRFilteringAtrousPositionSigmaAO: 1
    m_ShowResolutionOverlay: 1
  m_LightingDataAsset: {fileID: 112000002, guid: 1afe2fcc45f260a42bdf3e5db767f35d,
    type: 2}
  m_UseShadowmask: 0
--- !u!196 &4
NavMeshSettings:
  serializedVersion: 2
  m_ObjectHideFlags: 0
  m_BuildSettings:
    serializedVersion: 2
    agentTypeID: 0
    agentRadius: 0.5
    agentHeight: 2
    agentSlope: 45
    agentClimb: 0.4
    ledgeDropHeight: 0
    maxJumpAcrossDistance: 0
    minRegionArea: 2
    manualCellSize: 0
    cellSize: 0.16666667
    manualTileSize: 0
    tileSize: 256
    accuratePlacement: 0
    debug:
      m_Flags: 0
  m_NavMeshData: {fileID: 0}
--- !u!1 &23809948
GameObject:
  m_ObjectHideFlags: 0
  m_PrefabParentObject: {fileID: 147868, guid: 8e27da0dec07fa742a205c21e2468b01, type: 2}
  m_PrefabInternal: {fileID: 1978528535}
  serializedVersion: 5
  m_Component:
  - component: {fileID: 23809952}
  - component: {fileID: 23809951}
  - component: {fileID: 23809950}
  - component: {fileID: 23809949}
  m_Layer: 0
  m_Name: Chair 3
  m_TagString: Untagged
  m_Icon: {fileID: 0}
  m_NavMeshLayer: 0
  m_StaticEditorFlags: 0
  m_IsActive: 1
--- !u!95 &23809949
Animator:
  serializedVersion: 3
  m_ObjectHideFlags: 0
  m_PrefabParentObject: {fileID: 9545894, guid: 8e27da0dec07fa742a205c21e2468b01,
    type: 2}
  m_PrefabInternal: {fileID: 1978528535}
  m_GameObject: {fileID: 23809948}
  m_Enabled: 1
  m_Avatar: {fileID: 9000000, guid: 9d2ff9d6d683b354aacc6693a3137a81, type: 3}
  m_Controller: {fileID: 0}
  m_CullingMode: 0
  m_UpdateMode: 0
  m_ApplyRootMotion: 0
  m_LinearVelocityBlending: 0
  m_WarningMessage: 
  m_HasTransformHierarchy: 1
  m_AllowConstantClipSamplingOptimization: 1
--- !u!23 &23809950
MeshRenderer:
  m_ObjectHideFlags: 0
  m_PrefabParentObject: {fileID: 2342522, guid: 8e27da0dec07fa742a205c21e2468b01,
    type: 2}
  m_PrefabInternal: {fileID: 1978528535}
  m_GameObject: {fileID: 23809948}
  m_Enabled: 1
  m_CastShadows: 1
  m_ReceiveShadows: 1
  m_DynamicOccludee: 1
  m_MotionVectors: 1
  m_LightProbeUsage: 1
  m_ReflectionProbeUsage: 1
  m_Materials:
  - {fileID: 2100000, guid: 6f5a4abc3edad794a981164cf00c9ec0, type: 2}
  m_StaticBatchInfo:
    firstSubMesh: 0
    subMeshCount: 0
  m_StaticBatchRoot: {fileID: 0}
  m_ProbeAnchor: {fileID: 0}
  m_LightProbeVolumeOverride: {fileID: 0}
  m_ScaleInLightmap: 1
  m_PreserveUVs: 0
  m_IgnoreNormalsForChartDetection: 0
  m_ImportantGI: 0
  m_StitchLightmapSeams: 0
  m_SelectedEditorRenderState: 3
  m_MinimumChartSize: 4
  m_AutoUVMaxDistance: 0.5
  m_AutoUVMaxAngle: 89
  m_LightmapParameters: {fileID: 0}
  m_SortingLayerID: 0
  m_SortingLayer: 0
  m_SortingOrder: 0
--- !u!33 &23809951
MeshFilter:
  m_ObjectHideFlags: 0
  m_PrefabParentObject: {fileID: 3359792, guid: 8e27da0dec07fa742a205c21e2468b01,
    type: 2}
  m_PrefabInternal: {fileID: 1978528535}
  m_GameObject: {fileID: 23809948}
  m_Mesh: {fileID: 4300000, guid: 9d2ff9d6d683b354aacc6693a3137a81, type: 3}
--- !u!4 &23809952
Transform:
  m_ObjectHideFlags: 0
  m_PrefabParentObject: {fileID: 479690, guid: 8e27da0dec07fa742a205c21e2468b01, type: 2}
  m_PrefabInternal: {fileID: 1978528535}
  m_GameObject: {fileID: 23809948}
  m_LocalRotation: {x: 0, y: 1, z: 0, w: -0.00000016292068}
  m_LocalPosition: {x: 0.891, y: 0.55335826, z: -1.352}
  m_LocalScale: {x: 1, y: 1, z: 1}
  m_Children: []
  m_Father: {fileID: 0}
  m_RootOrder: 6
  m_LocalEulerAnglesHint: {x: 0, y: 0, z: 0}
--- !u!1 &458226456
GameObject:
  m_ObjectHideFlags: 0
  m_PrefabParentObject: {fileID: 0}
  m_PrefabInternal: {fileID: 0}
  serializedVersion: 5
  m_Component:
  - component: {fileID: 458226461}
  - component: {fileID: 458226460}
  - component: {fileID: 458226459}
  - component: {fileID: 458226458}
  - component: {fileID: 458226457}
  m_Layer: 0
  m_Name: Main Camera
  m_TagString: MainCamera
  m_Icon: {fileID: 0}
  m_NavMeshLayer: 0
  m_StaticEditorFlags: 0
  m_IsActive: 1
--- !u!81 &458226457
AudioListener:
  m_ObjectHideFlags: 0
  m_PrefabParentObject: {fileID: 0}
  m_PrefabInternal: {fileID: 0}
  m_GameObject: {fileID: 458226456}
  m_Enabled: 1
--- !u!124 &458226458
Behaviour:
  m_ObjectHideFlags: 0
  m_PrefabParentObject: {fileID: 0}
  m_PrefabInternal: {fileID: 0}
  m_GameObject: {fileID: 458226456}
  m_Enabled: 1
--- !u!92 &458226459
Behaviour:
  m_ObjectHideFlags: 0
  m_PrefabParentObject: {fileID: 0}
  m_PrefabInternal: {fileID: 0}
  m_GameObject: {fileID: 458226456}
  m_Enabled: 1
--- !u!20 &458226460
Camera:
  m_ObjectHideFlags: 0
  m_PrefabParentObject: {fileID: 0}
  m_PrefabInternal: {fileID: 0}
  m_GameObject: {fileID: 458226456}
  m_Enabled: 1
  serializedVersion: 2
  m_ClearFlags: 1
  m_BackGroundColor: {r: 0.19215687, g: 0.3019608, b: 0.4745098, a: 0}
  m_NormalizedViewPortRect:
    serializedVersion: 2
    x: 0
    y: 0
    width: 1
    height: 1
  near clip plane: 0.3
  far clip plane: 1000
  field of view: 60
  orthographic: 0
  orthographic size: 5
  m_Depth: -1
  m_CullingMask:
    serializedVersion: 2
    m_Bits: 4294967295
  m_RenderingPath: -1
  m_TargetTexture: {fileID: 0}
  m_TargetDisplay: 0
  m_TargetEye: 3
  m_HDR: 0
  m_AllowMSAA: 1
  m_AllowDynamicResolution: 0
  m_ForceIntoRT: 0
  m_OcclusionCulling: 1
  m_StereoConvergence: 10
  m_StereoSeparation: 0.022
--- !u!4 &458226461
Transform:
  m_ObjectHideFlags: 0
  m_PrefabParentObject: {fileID: 0}
  m_PrefabInternal: {fileID: 0}
  m_GameObject: {fileID: 458226456}
  m_LocalRotation: {x: 0.26413342, y: 0.0002047005, z: 0.00011333546, w: 0.9644861}
  m_LocalPosition: {x: 0.04, y: 1.479, z: -2.666}
  m_LocalScale: {x: 1, y: 1, z: 1}
  m_Children: []
  m_Father: {fileID: 0}
  m_RootOrder: 0
  m_LocalEulerAnglesHint: {x: 0, y: 0, z: 0}
--- !u!1001 &527902870
Prefab:
  m_ObjectHideFlags: 0
  serializedVersion: 2
  m_Modification:
    m_TransformParent: {fileID: 0}
    m_Modifications:
    - target: {fileID: 454698, guid: b2fa53215824cd04da24974e268c26d0, type: 2}
      propertyPath: m_LocalPosition.x
      value: 0
      objectReference: {fileID: 0}
    - target: {fileID: 454698, guid: b2fa53215824cd04da24974e268c26d0, type: 2}
      propertyPath: m_LocalPosition.y
      value: 0
      objectReference: {fileID: 0}
    - target: {fileID: 454698, guid: b2fa53215824cd04da24974e268c26d0, type: 2}
      propertyPath: m_LocalPosition.z
      value: 0
      objectReference: {fileID: 0}
    - target: {fileID: 454698, guid: b2fa53215824cd04da24974e268c26d0, type: 2}
      propertyPath: m_LocalRotation.x
      value: 0
      objectReference: {fileID: 0}
    - target: {fileID: 454698, guid: b2fa53215824cd04da24974e268c26d0, type: 2}
      propertyPath: m_LocalRotation.y
      value: 0
      objectReference: {fileID: 0}
    - target: {fileID: 454698, guid: b2fa53215824cd04da24974e268c26d0, type: 2}
      propertyPath: m_LocalRotation.z
      value: 0
      objectReference: {fileID: 0}
    - target: {fileID: 454698, guid: b2fa53215824cd04da24974e268c26d0, type: 2}
      propertyPath: m_LocalRotation.w
      value: 1
      objectReference: {fileID: 0}
    - target: {fileID: 454698, guid: b2fa53215824cd04da24974e268c26d0, type: 2}
      propertyPath: m_RootOrder
      value: 5
      objectReference: {fileID: 0}
    m_RemovedComponents: []
  m_ParentPrefab: {fileID: 100100000, guid: b2fa53215824cd04da24974e268c26d0, type: 2}
  m_RootGameObject: {fileID: 791917947}
  m_IsPrefabParent: 0
--- !u!1 &570318332
GameObject:
  m_ObjectHideFlags: 0
  m_PrefabParentObject: {fileID: 0}
  m_PrefabInternal: {fileID: 0}
  serializedVersion: 5
  m_Component:
  - component: {fileID: 570318334}
  - component: {fileID: 570318333}
  m_Layer: 0
  m_Name: Reflection Probe
  m_TagString: Untagged
  m_Icon: {fileID: 0}
  m_NavMeshLayer: 0
  m_StaticEditorFlags: 0
  m_IsActive: 1
--- !u!215 &570318333
ReflectionProbe:
  m_ObjectHideFlags: 0
  m_PrefabParentObject: {fileID: 0}
  m_PrefabInternal: {fileID: 0}
  m_GameObject: {fileID: 570318332}
  m_Enabled: 1
  serializedVersion: 2
  m_Type: 0
  m_Mode: 1
  m_RefreshMode: 1
  m_TimeSlicingMode: 0
  m_Resolution: 128
  m_UpdateFrequency: 0
  m_BoxSize: {x: 10.457174, y: 3.7508445, z: 10.2765}
  m_BoxOffset: {x: -0.46084404, y: -1.8754222, z: -0.9640665}
  m_NearClip: 0.3
  m_FarClip: 1000
  m_ShadowDistance: 100
  m_ClearFlags: 1
  m_BackGroundColor: {r: 0.19215687, g: 0.3019608, b: 0.4745098, a: 0}
  m_CullingMask:
    serializedVersion: 2
    m_Bits: 4294967295
  m_IntensityMultiplier: 1
  m_BlendDistance: 1
  m_HDR: 1
  m_BoxProjection: 0
  m_RenderDynamicObjects: 0
  m_UseOcclusionCulling: 1
  m_Importance: 1
  m_CustomBakedTexture: {fileID: 0}
--- !u!4 &570318334
Transform:
  m_ObjectHideFlags: 0
  m_PrefabParentObject: {fileID: 0}
  m_PrefabInternal: {fileID: 0}
  m_GameObject: {fileID: 570318332}
  m_LocalRotation: {x: 0, y: 0, z: 0, w: 1}
  m_LocalPosition: {x: 0.5245142, y: 3.65, z: 1.0129743}
  m_LocalScale: {x: 1, y: 1, z: 1}
  m_Children: []
  m_Father: {fileID: 0}
  m_RootOrder: 3
  m_LocalEulerAnglesHint: {x: 0, y: 0, z: 0}
--- !u!1 &791917947
GameObject:
  m_ObjectHideFlags: 0
  m_PrefabParentObject: {fileID: 120368, guid: b2fa53215824cd04da24974e268c26d0, type: 2}
  m_PrefabInternal: {fileID: 527902870}
  serializedVersion: 5
  m_Component:
  - component: {fileID: 791917951}
  - component: {fileID: 791917950}
  - component: {fileID: 791917949}
  - component: {fileID: 791917948}
  m_Layer: 0
  m_Name: Tile
  m_TagString: Untagged
  m_Icon: {fileID: 0}
  m_NavMeshLayer: 0
  m_StaticEditorFlags: 4294967295
  m_IsActive: 1
--- !u!23 &791917948
MeshRenderer:
  m_ObjectHideFlags: 0
  m_PrefabParentObject: {fileID: 2335122, guid: b2fa53215824cd04da24974e268c26d0,
    type: 2}
  m_PrefabInternal: {fileID: 527902870}
  m_GameObject: {fileID: 791917947}
  m_Enabled: 1
  m_CastShadows: 1
  m_ReceiveShadows: 1
  m_DynamicOccludee: 1
  m_MotionVectors: 1
  m_LightProbeUsage: 1
  m_ReflectionProbeUsage: 1
  m_Materials:
  - {fileID: 2100000, guid: 0858a5b2cc26cba4a9202802c32d2b71, type: 2}
  m_StaticBatchInfo:
    firstSubMesh: 0
    subMeshCount: 0
  m_StaticBatchRoot: {fileID: 0}
  m_ProbeAnchor: {fileID: 0}
  m_LightProbeVolumeOverride: {fileID: 0}
  m_ScaleInLightmap: 1
  m_PreserveUVs: 1
  m_IgnoreNormalsForChartDetection: 0
  m_ImportantGI: 0
  m_StitchLightmapSeams: 0
  m_SelectedEditorRenderState: 3
  m_MinimumChartSize: 4
  m_AutoUVMaxDistance: 0.5
  m_AutoUVMaxAngle: 89
  m_LightmapParameters: {fileID: 0}
  m_SortingLayerID: 0
  m_SortingLayer: 0
  m_SortingOrder: 0
--- !u!64 &791917949
MeshCollider:
  m_ObjectHideFlags: 0
  m_PrefabParentObject: {fileID: 6410872, guid: b2fa53215824cd04da24974e268c26d0,
    type: 2}
  m_PrefabInternal: {fileID: 527902870}
  m_GameObject: {fileID: 791917947}
  m_Material: {fileID: 0}
  m_IsTrigger: 0
  m_Enabled: 1
  serializedVersion: 3
  m_Convex: 0
  m_CookingOptions: 14
  m_SkinWidth: 0.01
  m_Mesh: {fileID: 10209, guid: 0000000000000000e000000000000000, type: 0}
--- !u!33 &791917950
MeshFilter:
  m_ObjectHideFlags: 0
  m_PrefabParentObject: {fileID: 3331384, guid: b2fa53215824cd04da24974e268c26d0,
    type: 2}
  m_PrefabInternal: {fileID: 527902870}
  m_GameObject: {fileID: 791917947}
  m_Mesh: {fileID: 10209, guid: 0000000000000000e000000000000000, type: 0}
--- !u!4 &791917951
Transform:
  m_ObjectHideFlags: 0
  m_PrefabParentObject: {fileID: 454698, guid: b2fa53215824cd04da24974e268c26d0, type: 2}
  m_PrefabInternal: {fileID: 527902870}
  m_GameObject: {fileID: 791917947}
  m_LocalRotation: {x: 0, y: 0, z: 0, w: 1}
  m_LocalPosition: {x: 0, y: 0, z: 0}
  m_LocalScale: {x: 1, y: 1, z: 1}
  m_Children: []
  m_Father: {fileID: 0}
  m_RootOrder: 5
  m_LocalEulerAnglesHint: {x: 0, y: 0, z: 0}
--- !u!1 &1099151535
GameObject:
  m_ObjectHideFlags: 0
  m_PrefabParentObject: {fileID: 170718, guid: 34fa08a792bfcd7499468ad09c141944, type: 2}
  m_PrefabInternal: {fileID: 1320927765}
  serializedVersion: 5
  m_Component:
  - component: {fileID: 1099151539}
  - component: {fileID: 1099151538}
  - component: {fileID: 1099151537}
  - component: {fileID: 1099151536}
  m_Layer: 0
  m_Name: Sofa
  m_TagString: Untagged
  m_Icon: {fileID: 0}
  m_NavMeshLayer: 0
  m_StaticEditorFlags: 0
  m_IsActive: 1
--- !u!95 &1099151536
Animator:
  serializedVersion: 3
  m_ObjectHideFlags: 0
  m_PrefabParentObject: {fileID: 9561414, guid: 34fa08a792bfcd7499468ad09c141944,
    type: 2}
  m_PrefabInternal: {fileID: 1320927765}
  m_GameObject: {fileID: 1099151535}
  m_Enabled: 1
  m_Avatar: {fileID: 9000000, guid: 1d02e483d5ed5854fafb927d648c650a, type: 3}
  m_Controller: {fileID: 0}
  m_CullingMode: 0
  m_UpdateMode: 0
  m_ApplyRootMotion: 0
  m_LinearVelocityBlending: 0
  m_WarningMessage: 
  m_HasTransformHierarchy: 1
  m_AllowConstantClipSamplingOptimization: 1
--- !u!23 &1099151537
MeshRenderer:
  m_ObjectHideFlags: 0
  m_PrefabParentObject: {fileID: 2398644, guid: 34fa08a792bfcd7499468ad09c141944,
    type: 2}
  m_PrefabInternal: {fileID: 1320927765}
  m_GameObject: {fileID: 1099151535}
  m_Enabled: 1
  m_CastShadows: 1
  m_ReceiveShadows: 1
  m_DynamicOccludee: 1
  m_MotionVectors: 1
  m_LightProbeUsage: 1
  m_ReflectionProbeUsage: 1
  m_Materials:
  - {fileID: 2100000, guid: 176658bdd49b2c54ca1b1ef19b63ba3e, type: 2}
  m_StaticBatchInfo:
    firstSubMesh: 0
    subMeshCount: 0
  m_StaticBatchRoot: {fileID: 0}
  m_ProbeAnchor: {fileID: 0}
  m_LightProbeVolumeOverride: {fileID: 0}
  m_ScaleInLightmap: 1
  m_PreserveUVs: 0
  m_IgnoreNormalsForChartDetection: 0
  m_ImportantGI: 0
  m_StitchLightmapSeams: 0
  m_SelectedEditorRenderState: 3
  m_MinimumChartSize: 4
  m_AutoUVMaxDistance: 0.5
  m_AutoUVMaxAngle: 89
  m_LightmapParameters: {fileID: 0}
  m_SortingLayerID: 0
  m_SortingLayer: 0
  m_SortingOrder: 0
--- !u!33 &1099151538
MeshFilter:
  m_ObjectHideFlags: 0
  m_PrefabParentObject: {fileID: 3318016, guid: 34fa08a792bfcd7499468ad09c141944,
    type: 2}
  m_PrefabInternal: {fileID: 1320927765}
  m_GameObject: {fileID: 1099151535}
  m_Mesh: {fileID: 4300000, guid: 1d02e483d5ed5854fafb927d648c650a, type: 3}
--- !u!4 &1099151539
Transform:
  m_ObjectHideFlags: 0
  m_PrefabParentObject: {fileID: 457098, guid: 34fa08a792bfcd7499468ad09c141944, type: 2}
  m_PrefabInternal: {fileID: 1320927765}
  m_GameObject: {fileID: 1099151535}
  m_LocalRotation: {x: 0, y: 1, z: 0, w: -0.00000016292068}
  m_LocalPosition: {x: 0, y: 0.464, z: 0}
  m_LocalScale: {x: 1, y: 1, z: 1}
  m_Children: []
  m_Father: {fileID: 0}
  m_RootOrder: 1
  m_LocalEulerAnglesHint: {x: 0, y: 0, z: 0}
--- !u!1 &1208831576
GameObject:
  m_ObjectHideFlags: 0
  m_PrefabParentObject: {fileID: 0}
  m_PrefabInternal: {fileID: 0}
  serializedVersion: 5
  m_Component:
  - component: {fileID: 1208831578}
  - component: {fileID: 1208831577}
  m_Layer: 0
  m_Name: Directional Light
  m_TagString: Untagged
  m_Icon: {fileID: 0}
  m_NavMeshLayer: 0
  m_StaticEditorFlags: 0
  m_IsActive: 1
--- !u!108 &1208831577
Light:
  m_ObjectHideFlags: 0
  m_PrefabParentObject: {fileID: 0}
  m_PrefabInternal: {fileID: 0}
  m_GameObject: {fileID: 1208831576}
  m_Enabled: 1
  serializedVersion: 8
  m_Type: 1
  m_Color: {r: 1, g: 0.95686275, b: 0.8392157, a: 1}
  m_Intensity: 1
  m_Range: 10
  m_SpotAngle: 30
  m_CookieSize: 10
  m_Shadows:
    m_Type: 2
    m_Resolution: 3
    m_CustomResolution: -1
    m_Strength: 1
    m_Bias: 0.05
    m_NormalBias: 0.01
    m_NearPlane: 0.2
  m_Cookie: {fileID: 0}
  m_DrawHalo: 0
  m_Flare: {fileID: 0}
  m_RenderMode: 0
  m_CullingMask:
    serializedVersion: 2
    m_Bits: 4294967295
  m_Lightmapping: 1
  m_AreaSize: {x: 1, y: 1}
  m_BounceIntensity: 2
  m_ColorTemperature: 6570
  m_UseColorTemperature: 0
  m_ShadowRadius: 0
  m_ShadowAngle: 0
--- !u!4 &1208831578
Transform:
  m_ObjectHideFlags: 0
  m_PrefabParentObject: {fileID: 0}
  m_PrefabInternal: {fileID: 0}
  m_GameObject: {fileID: 1208831576}
  m_LocalRotation: {x: 0.40821788, y: -0.23456968, z: 0.10938163, w: 0.8754261}
  m_LocalPosition: {x: 0, y: 3, z: 0}
  m_LocalScale: {x: 1, y: 1, z: 1}
  m_Children: []
  m_Father: {fileID: 0}
  m_RootOrder: 2
  m_LocalEulerAnglesHint: {x: 0, y: 0, z: 0}
--- !u!1 &1216013898
GameObject:
  m_ObjectHideFlags: 0
  m_PrefabParentObject: {fileID: 197798, guid: 7cd483685c039354d9d4aeb2d0791875, type: 2}
  m_PrefabInternal: {fileID: 1876665854}
  serializedVersion: 5
  m_Component:
  - component: {fileID: 1216013902}
  - component: {fileID: 1216013901}
  - component: {fileID: 1216013900}
  - component: {fileID: 1216013899}
  m_Layer: 0
  m_Name: Chair 1
  m_TagString: Untagged
  m_Icon: {fileID: 0}
  m_NavMeshLayer: 0
  m_StaticEditorFlags: 0
  m_IsActive: 1
--- !u!95 &1216013899
Animator:
  serializedVersion: 3
  m_ObjectHideFlags: 0
  m_PrefabParentObject: {fileID: 9557854, guid: 7cd483685c039354d9d4aeb2d0791875,
    type: 2}
  m_PrefabInternal: {fileID: 1876665854}
  m_GameObject: {fileID: 1216013898}
  m_Enabled: 1
  m_Avatar: {fileID: 9000000, guid: 9d2ff9d6d683b354aacc6693a3137a81, type: 3}
  m_Controller: {fileID: 0}
  m_CullingMode: 0
  m_UpdateMode: 0
  m_ApplyRootMotion: 0
  m_LinearVelocityBlending: 0
  m_WarningMessage: 
  m_HasTransformHierarchy: 1
  m_AllowConstantClipSamplingOptimization: 1
--- !u!23 &1216013900
MeshRenderer:
  m_ObjectHideFlags: 0
  m_PrefabParentObject: {fileID: 2347470, guid: 7cd483685c039354d9d4aeb2d0791875,
    type: 2}
  m_PrefabInternal: {fileID: 1876665854}
  m_GameObject: {fileID: 1216013898}
  m_Enabled: 1
  m_CastShadows: 1
  m_ReceiveShadows: 1
  m_DynamicOccludee: 1
  m_MotionVectors: 1
  m_LightProbeUsage: 1
  m_ReflectionProbeUsage: 1
  m_Materials:
  - {fileID: 2100000, guid: 87301c65e121250429f1207128df97f2, type: 2}
  m_StaticBatchInfo:
    firstSubMesh: 0
    subMeshCount: 0
  m_StaticBatchRoot: {fileID: 0}
  m_ProbeAnchor: {fileID: 0}
  m_LightProbeVolumeOverride: {fileID: 0}
  m_ScaleInLightmap: 1
  m_PreserveUVs: 0
  m_IgnoreNormalsForChartDetection: 0
  m_ImportantGI: 0
  m_StitchLightmapSeams: 0
  m_SelectedEditorRenderState: 3
  m_MinimumChartSize: 4
  m_AutoUVMaxDistance: 0.5
  m_AutoUVMaxAngle: 89
  m_LightmapParameters: {fileID: 0}
  m_SortingLayerID: 0
  m_SortingLayer: 0
  m_SortingOrder: 0
--- !u!33 &1216013901
MeshFilter:
  m_ObjectHideFlags: 0
  m_PrefabParentObject: {fileID: 3367290, guid: 7cd483685c039354d9d4aeb2d0791875,
    type: 2}
  m_PrefabInternal: {fileID: 1876665854}
  m_GameObject: {fileID: 1216013898}
  m_Mesh: {fileID: 4300000, guid: 9d2ff9d6d683b354aacc6693a3137a81, type: 3}
--- !u!4 &1216013902
Transform:
  m_ObjectHideFlags: 0
  m_PrefabParentObject: {fileID: 413238, guid: 7cd483685c039354d9d4aeb2d0791875, type: 2}
  m_PrefabInternal: {fileID: 1876665854}
  m_GameObject: {fileID: 1216013898}
  m_LocalRotation: {x: 0, y: 1, z: 0, w: -0.00000016292068}
  m_LocalPosition: {x: -0.88, y: 0.55335826, z: -1.352}
  m_LocalScale: {x: 1, y: 1, z: 1}
  m_Children: []
  m_Father: {fileID: 0}
  m_RootOrder: 7
  m_LocalEulerAnglesHint: {x: 0, y: 0, z: 0}
--- !u!1001 &1320927765
Prefab:
  m_ObjectHideFlags: 0
  serializedVersion: 2
  m_Modification:
    m_TransformParent: {fileID: 0}
    m_Modifications:
    - target: {fileID: 457098, guid: 34fa08a792bfcd7499468ad09c141944, type: 2}
      propertyPath: m_LocalPosition.x
      value: 0
      objectReference: {fileID: 0}
    - target: {fileID: 457098, guid: 34fa08a792bfcd7499468ad09c141944, type: 2}
      propertyPath: m_LocalPosition.y
      value: 0.464
      objectReference: {fileID: 0}
    - target: {fileID: 457098, guid: 34fa08a792bfcd7499468ad09c141944, type: 2}
      propertyPath: m_LocalPosition.z
      value: 0
      objectReference: {fileID: 0}
    - target: {fileID: 457098, guid: 34fa08a792bfcd7499468ad09c141944, type: 2}
      propertyPath: m_LocalRotation.x
      value: 0
      objectReference: {fileID: 0}
    - target: {fileID: 457098, guid: 34fa08a792bfcd7499468ad09c141944, type: 2}
      propertyPath: m_LocalRotation.y
      value: 1
      objectReference: {fileID: 0}
    - target: {fileID: 457098, guid: 34fa08a792bfcd7499468ad09c141944, type: 2}
      propertyPath: m_LocalRotation.z
      value: 0
      objectReference: {fileID: 0}
    - target: {fileID: 457098, guid: 34fa08a792bfcd7499468ad09c141944, type: 2}
      propertyPath: m_LocalRotation.w
      value: -0.00000016292068
      objectReference: {fileID: 0}
    - target: {fileID: 457098, guid: 34fa08a792bfcd7499468ad09c141944, type: 2}
      propertyPath: m_RootOrder
      value: 1
      objectReference: {fileID: 0}
    m_RemovedComponents: []
  m_ParentPrefab: {fileID: 100100000, guid: 34fa08a792bfcd7499468ad09c141944, type: 2}
  m_RootGameObject: {fileID: 1099151535}
  m_IsPrefabParent: 0
--- !u!1 &1590971785
GameObject:
  m_ObjectHideFlags: 0
  m_PrefabParentObject: {fileID: 105768, guid: b77db659eb361204ea54da8a044b340e, type: 2}
  m_PrefabInternal: {fileID: 2044257986}
  serializedVersion: 5
  m_Component:
  - component: {fileID: 1590971789}
  - component: {fileID: 1590971788}
  - component: {fileID: 1590971787}
  - component: {fileID: 1590971786}
  m_Layer: 0
  m_Name: Chair 2
  m_TagString: Untagged
  m_Icon: {fileID: 0}
  m_NavMeshLayer: 0
  m_StaticEditorFlags: 0
  m_IsActive: 1
--- !u!95 &1590971786
Animator:
  serializedVersion: 3
  m_ObjectHideFlags: 0
  m_PrefabParentObject: {fileID: 9525286, guid: b77db659eb361204ea54da8a044b340e,
    type: 2}
  m_PrefabInternal: {fileID: 2044257986}
  m_GameObject: {fileID: 1590971785}
  m_Enabled: 1
  m_Avatar: {fileID: 9000000, guid: 9d2ff9d6d683b354aacc6693a3137a81, type: 3}
  m_Controller: {fileID: 0}
  m_CullingMode: 0
  m_UpdateMode: 0
  m_ApplyRootMotion: 0
  m_LinearVelocityBlending: 0
  m_WarningMessage: 
  m_HasTransformHierarchy: 1
  m_AllowConstantClipSamplingOptimization: 1
--- !u!23 &1590971787
MeshRenderer:
  m_ObjectHideFlags: 0
  m_PrefabParentObject: {fileID: 2384530, guid: b77db659eb361204ea54da8a044b340e,
    type: 2}
  m_PrefabInternal: {fileID: 2044257986}
  m_GameObject: {fileID: 1590971785}
  m_Enabled: 1
  m_CastShadows: 1
  m_ReceiveShadows: 1
  m_DynamicOccludee: 1
  m_MotionVectors: 1
  m_LightProbeUsage: 1
  m_ReflectionProbeUsage: 1
  m_Materials:
  - {fileID: 2100000, guid: 6172c05b060312b41a738522619cfd60, type: 2}
  m_StaticBatchInfo:
    firstSubMesh: 0
    subMeshCount: 0
  m_StaticBatchRoot: {fileID: 0}
  m_ProbeAnchor: {fileID: 0}
  m_LightProbeVolumeOverride: {fileID: 0}
  m_ScaleInLightmap: 1
  m_PreserveUVs: 0
  m_IgnoreNormalsForChartDetection: 0
  m_ImportantGI: 0
  m_StitchLightmapSeams: 0
  m_SelectedEditorRenderState: 3
  m_MinimumChartSize: 4
  m_AutoUVMaxDistance: 0.5
  m_AutoUVMaxAngle: 89
  m_LightmapParameters: {fileID: 0}
  m_SortingLayerID: 0
  m_SortingLayer: 0
  m_SortingOrder: 0
--- !u!33 &1590971788
MeshFilter:
  m_ObjectHideFlags: 0
  m_PrefabParentObject: {fileID: 3351776, guid: b77db659eb361204ea54da8a044b340e,
    type: 2}
  m_PrefabInternal: {fileID: 2044257986}
  m_GameObject: {fileID: 1590971785}
  m_Mesh: {fileID: 4300000, guid: 9d2ff9d6d683b354aacc6693a3137a81, type: 3}
--- !u!4 &1590971789
Transform:
  m_ObjectHideFlags: 0
  m_PrefabParentObject: {fileID: 466878, guid: b77db659eb361204ea54da8a044b340e, type: 2}
  m_PrefabInternal: {fileID: 2044257986}
  m_GameObject: {fileID: 1590971785}
  m_LocalRotation: {x: 0, y: 1, z: 0, w: -0.00000016292068}
  m_LocalPosition: {x: -0, y: 0.55335826, z: -1.352}
  m_LocalScale: {x: 1, y: 1, z: 1}
  m_Children: []
  m_Father: {fileID: 0}
  m_RootOrder: 4
  m_LocalEulerAnglesHint: {x: 0, y: 0, z: 0}
--- !u!1001 &1876665854
Prefab:
  m_ObjectHideFlags: 0
  serializedVersion: 2
  m_Modification:
    m_TransformParent: {fileID: 0}
    m_Modifications:
    - target: {fileID: 413238, guid: 7cd483685c039354d9d4aeb2d0791875, type: 2}
      propertyPath: m_LocalPosition.x
      value: -0.88
      objectReference: {fileID: 0}
    - target: {fileID: 413238, guid: 7cd483685c039354d9d4aeb2d0791875, type: 2}
      propertyPath: m_LocalPosition.y
      value: 0.55335826
      objectReference: {fileID: 0}
    - target: {fileID: 413238, guid: 7cd483685c039354d9d4aeb2d0791875, type: 2}
      propertyPath: m_LocalPosition.z
      value: -1.352
      objectReference: {fileID: 0}
    - target: {fileID: 413238, guid: 7cd483685c039354d9d4aeb2d0791875, type: 2}
      propertyPath: m_LocalRotation.x
      value: 0
      objectReference: {fileID: 0}
    - target: {fileID: 413238, guid: 7cd483685c039354d9d4aeb2d0791875, type: 2}
      propertyPath: m_LocalRotation.y
      value: 1
      objectReference: {fileID: 0}
    - target: {fileID: 413238, guid: 7cd483685c039354d9d4aeb2d0791875, type: 2}
      propertyPath: m_LocalRotation.z
      value: 0
      objectReference: {fileID: 0}
    - target: {fileID: 413238, guid: 7cd483685c039354d9d4aeb2d0791875, type: 2}
      propertyPath: m_LocalRotation.w
      value: -0.00000016292068
      objectReference: {fileID: 0}
    - target: {fileID: 413238, guid: 7cd483685c039354d9d4aeb2d0791875, type: 2}
      propertyPath: m_RootOrder
      value: 7
      objectReference: {fileID: 0}
    m_RemovedComponents: []
  m_ParentPrefab: {fileID: 100100000, guid: 7cd483685c039354d9d4aeb2d0791875, type: 2}
  m_RootGameObject: {fileID: 1216013898}
  m_IsPrefabParent: 0
--- !u!1001 &1978528535
Prefab:
  m_ObjectHideFlags: 0
  serializedVersion: 2
  m_Modification:
    m_TransformParent: {fileID: 0}
    m_Modifications:
    - target: {fileID: 479690, guid: 8e27da0dec07fa742a205c21e2468b01, type: 2}
      propertyPath: m_LocalPosition.x
      value: 0.891
      objectReference: {fileID: 0}
    - target: {fileID: 479690, guid: 8e27da0dec07fa742a205c21e2468b01, type: 2}
      propertyPath: m_LocalPosition.y
      value: 0.55335826
      objectReference: {fileID: 0}
    - target: {fileID: 479690, guid: 8e27da0dec07fa742a205c21e2468b01, type: 2}
      propertyPath: m_LocalPosition.z
      value: -1.352
      objectReference: {fileID: 0}
    - target: {fileID: 479690, guid: 8e27da0dec07fa742a205c21e2468b01, type: 2}
      propertyPath: m_LocalRotation.x
      value: 0
      objectReference: {fileID: 0}
    - target: {fileID: 479690, guid: 8e27da0dec07fa742a205c21e2468b01, type: 2}
      propertyPath: m_LocalRotation.y
      value: 1
      objectReference: {fileID: 0}
    - target: {fileID: 479690, guid: 8e27da0dec07fa742a205c21e2468b01, type: 2}
      propertyPath: m_LocalRotation.z
      value: 0
      objectReference: {fileID: 0}
    - target: {fileID: 479690, guid: 8e27da0dec07fa742a205c21e2468b01, type: 2}
      propertyPath: m_LocalRotation.w
      value: -0.00000016292068
      objectReference: {fileID: 0}
    - target: {fileID: 479690, guid: 8e27da0dec07fa742a205c21e2468b01, type: 2}
      propertyPath: m_RootOrder
      value: 6
      objectReference: {fileID: 0}
    m_RemovedComponents: []
  m_ParentPrefab: {fileID: 100100000, guid: 8e27da0dec07fa742a205c21e2468b01, type: 2}
  m_RootGameObject: {fileID: 23809948}
  m_IsPrefabParent: 0
--- !u!1001 &2044257986
Prefab:
  m_ObjectHideFlags: 0
  serializedVersion: 2
  m_Modification:
    m_TransformParent: {fileID: 0}
    m_Modifications:
    - target: {fileID: 466878, guid: b77db659eb361204ea54da8a044b340e, type: 2}
      propertyPath: m_LocalPosition.x
      value: -0
      objectReference: {fileID: 0}
    - target: {fileID: 466878, guid: b77db659eb361204ea54da8a044b340e, type: 2}
      propertyPath: m_LocalPosition.y
      value: 0.55335826
      objectReference: {fileID: 0}
    - target: {fileID: 466878, guid: b77db659eb361204ea54da8a044b340e, type: 2}
      propertyPath: m_LocalPosition.z
      value: -1.352
      objectReference: {fileID: 0}
    - target: {fileID: 466878, guid: b77db659eb361204ea54da8a044b340e, type: 2}
      propertyPath: m_LocalRotation.x
      value: 0
      objectReference: {fileID: 0}
    - target: {fileID: 466878, guid: b77db659eb361204ea54da8a044b340e, type: 2}
      propertyPath: m_LocalRotation.y
      value: 1
      objectReference: {fileID: 0}
    - target: {fileID: 466878, guid: b77db659eb361204ea54da8a044b340e, type: 2}
      propertyPath: m_LocalRotation.z
      value: 0
      objectReference: {fileID: 0}
    - target: {fileID: 466878, guid: b77db659eb361204ea54da8a044b340e, type: 2}
      propertyPath: m_LocalRotation.w
      value: -0.00000016292068
      objectReference: {fileID: 0}
    - target: {fileID: 466878, guid: b77db659eb361204ea54da8a044b340e, type: 2}
      propertyPath: m_RootOrder
      value: 4
      objectReference: {fileID: 0}
    m_RemovedComponents: []
  m_ParentPrefab: {fileID: 100100000, guid: b77db659eb361204ea54da8a044b340e, type: 2}
  m_RootGameObject: {fileID: 1590971785}
  m_IsPrefabParent: 0
